
=======project info=======

DB PART:
Mysql DB URL: http://35.183.186.135:8080/index.php or https://tinyurl.com/leawsmysql
DB design ER diagram : google drive share folder/ recipesdb






=======project info========
